%YAML 1.1
%TAG !u! tag:unity3d.com,2011:
--- !u!114 &11400000
MonoBehaviour:
  m_ObjectHideFlags: 0
  m_CorrespondingSourceObject: {fileID: 0}
  m_PrefabInstance: {fileID: 0}
  m_PrefabAsset: {fileID: 0}
  m_GameObject: {fileID: 0}
  m_Enabled: 1
  m_EditorHideFlags: 0
  m_Script: {fileID: 11500000, guid: bb039d2189e77654f96ae2b568173f45, type: 3}
  m_Name: PurseTile
  m_EditorClassIdentifier: 
  up: 1
  down: 1
  left: 0
  right: 1
  tileSprite: {fileID: 21300000, guid: cb603b19d64209a44bd91b20b91ceb9f, type: 3}
  treasure: {fileID: 11400000, guid: 7eef33f5a2ef6d3488f5ae3c203be89e, type: 2}
  playerName: 
  playerColor: {r: 0, g: 0, b: 0, a: 0}
