%YAML 1.1
%TAG !u! tag:unity3d.com,2011:
--- !u!114 &11400000
MonoBehaviour:
  m_ObjectHideFlags: 0
  m_CorrespondingSourceObject: {fileID: 0}
  m_PrefabInstance: {fileID: 0}
  m_PrefabAsset: {fileID: 0}
  m_GameObject: {fileID: 0}
  m_Enabled: 1
  m_EditorHideFlags: 0
  m_Script: {fileID: 11500000, guid: bb039d2189e77654f96ae2b568173f45, type: 3}
  m_Name: PlayerBlueTile
  m_EditorClassIdentifier: 
  up: 1
  down: 0
  left: 0
  right: 1
  tileSprite: {fileID: 21300000, guid: 24bbe5e3f62d1cb438ab709f2102acd9, type: 3}
  treasure: {fileID: 0}
  playerName: Blue
  playerColor: {r: 0.35635456, g: 0.41108894, b: 0.9811321, a: 1}
